<?xml version="1.0" encoding="UTF-8" standalone="no"?>
<!DOCTYPE svg PUBLIC "-//W3C//DTD SVG 1.1//EN" "http://www.w3.org/Graphics/SVG/1.1/DTD/svg11.dtd">
<svg version="1.1" id="Layer_1" xmlns="http://www.w3.org/2000/svg" xmlns:xlink="http://www.w3.org/1999/xlink" x="0px" y="0px" width="32px" height="32px" viewBox="0 0 32 32" enable-background="new 0 0 32 32" xml:space="preserve">  <image id="image0" width="32" height="32" x="0" y="0"
    href="data:image/png;base64,iVBORw0KGgoAAAANSUhEUgAAACAAAAAgCAAAAABWESUoAAAABGdBTUEAALGPC/xhBQAAACBjSFJN
AAB6JgAAgIQAAPoAAACA6AAAdTAAAOpgAAA6mAAAF3CculE8AAAAAmJLR0QA/4ePzL8AAAAJcEhZ
cwAAAGAAAABgAPBrQs8AAAAHdElNRQflAwcFMCi8Ej4aAAABY0lEQVQ4y4WTS0/CQBSFT28fYIG0
hAkkBv4N/g7/r0FduCCEBYk8VOxAK7RCW2ZcGHAGWvxWc+ecyZ3XMSSOiG2ySwXIqbp1Os0aR0Me
RG6t6pgQ6XeceMzSDZKvPGaelh2CqMkMxZDPzY4Nlewj71onw37qM5wThL0KAEgps3EoCwjHmZSS
ADnzPRTg+TMBEMAthkKYzQFCvuqghPb6AELg2WUG2/8EiYihlFYkaOua+uRCGZvuhpKarj/eq45a
gkmsHf7h7kktkwlG2RVd5iMMhVK/9Af6bYoh4T9Gud7i+bzFxSY1RzLBG9e7DvpzpVotEL2evbKq
y2lI9eSgb+pWGR/iBpEXlJ+Ae0RgUV6mZyEDwWq+lxmWTQsEsLykCc9aAAFGN4yK9K91l659e77u
VXAKzsxunwVnmSnBAQRf+y0lejxstn7fUQ/vjUMQ6S6OL8ILAGKT7FMBcipu4+8X/AB3u2TRyTqa
RQAAACV0RVh0ZGF0ZTpjcmVhdGUAMjAyMS0wMy0wN1QwNTo0ODo0MCswMDowMH9w8nEAAAAldEVY
dGRhdGU6bW9kaWZ5ADIwMjEtMDMtMDdUMDU6NDg6NDArMDA6MDAOLUrNAAAAAElFTkSuQmCC" />
</svg>
